…
brfss
```

    ## # A tibble: 10,625 x 25
    ##     year locationabbr locationdesc class topic question response
    ##    <int> <chr>        <chr>        <chr> <chr> <chr>    <fct>   
    ##  1  2010 AL           AL - Jeffer~ Heal~ Over~ How is ~ Excelle~
    ##  2  2010 AL           AL - Jeffer~ Heal~ Over~ How is ~ Very go~
    ##  3  2010 AL           AL - Jeffer~ Heal~ Over~ How is ~ Good    
    ##  4  2010 AL           AL - Jeffer~ Heal~ Over~ How is ~ Fair    
    ##  5  2010 AL           AL - Jeffer~ Heal~ Over~ How is ~ Poor    
    ##  6  2010 AL           AL - Mobile~ Heal~ Over~ How is ~ Excelle~
    ##  7  2010 AL           AL - Mobile~ Heal~ Over~ How is ~ Very go~
    ##  8  2010 AL           AL - Mobile~ Heal~ Over~ How is ~ Good    
    ##  9  2010 AL           AL - Mobile~ Heal~ Over~ How is ~ Fair    
    ## 10  2010 AL           AL - Mobile~ Heal~ Over~ How is ~ Poor    
    ## # ... with 10,615 more rows, and 18 more variables: sample_size <int>,
    ## #   data_value <dbl>, confidence_limit_low <dbl>,
    ## #   confidence_limit_high <dbl>, display_order <int>,
    ## #   data_value_unit <chr>, data_value_type <chr>,
    ## #   data_value_footnote_symbol <chr>, data_value_footnote <chr>,
    ## #   data_source <chr>, class_id <chr>, topic_id <chr>, location_id <chr>,
    ## #   question_id <chr>, respid <chr>, geo_location <chr>, state <chr>,
    ## #   location <chr>
…
#### Excellent responses

``` r
excellent = brfss %>%
            filter(response == "Excellent") %>%
            select(year, state, data_value) %>%
            group_by(year, state) %>%
            summarize(mean_data_value = mean(data_value))

excellent
```

    ## # A tibble: 443 x 3
    ## # Groups:   year [9]
    ##     year state mean_data_value
    ##    <int> <chr>           <dbl>
    ##  1  2002 AK               27.9
    ##  2  2002 AL               18.5
    ##  3  2002 AR               24.1
    ##  4  2002 AZ               24.1
    ##  5  2002 CA               22.7
    ##  6  2002 CO               23.1
    ##  7  2002 CT               29.1
    ##  8  2002 DC               29.3
    ##  9  2002 DE               20.9
    ## 10  2002 FL               25.7
    ## # ... with 433 more rows
…
    ## See spec(...) for full column specifications.

``` r
for (row in 1:nrow(accel)) {
  if (accel[row, "day"] == "Saturday" | accel[row, "day"] == "Sunday") {
    accel[row, "wkdy_wknd"] = "weekend"
  }
}

accel
```

    ## # A tibble: 50,400 x 6
    ##     week day_id day    wkdy_wknd minute activity
    ##    <dbl>  <dbl> <fct>  <chr>      <dbl>    <dbl>
    ##  1     1      1 Friday weekday        1     88.4
    ##  2     1      1 Friday weekday        2     82.2
    ##  3     1      1 Friday weekday        3     64.4
    ##  4     1      1 Friday weekday        4     70.0
    ##  5     1      1 Friday weekday        5     75.0
    ##  6     1      1 Friday weekday        6     66.3
    ##  7     1      1 Friday weekday        7     53.8
    ##  8     1      1 Friday weekday        8     47.8
    ##  9     1      1 Friday weekday        9     55.5
    ## 10     1      1 Friday weekday       10     43.0
    ## # ... with 50,390 more rows
…
#### Aggregated activity table

``` r
agg_act = accel %>%
            group_by(day_id) %>%
            summarize(total_act = sum(activity))

agg_act
```

    ## # A tibble: 35 x 2
    ##    day_id total_act
    ##     <dbl>     <dbl>
    ##  1      1   480543.
    ##  2      2    78828.
    ##  3      3   376254 
    ##  4      4   631105 
    ##  5      5   355924.
    ##  6      6   307094.
    ##  7      7   340115.
    ##  8      8   568839 
    ##  9      9   295431 
    ## 10     10   607175 
    ## # ... with 25 more rows
…
